%YAML 1.1
%TAG !u! tag:unity3d.com,2011:
--- !u!1 &1356121911968662244
GameObject:
  m_ObjectHideFlags: 0
  m_CorrespondingSourceObject: {fileID: 0}
  m_PrefabInstance: {fileID: 0}
  m_PrefabAsset: {fileID: 0}
  serializedVersion: 6
  m_Component:
  - component: {fileID: 979813685485414098}
  - component: {fileID: 1183701985069463908}
  - component: {fileID: 6437119857474881961}
  m_Layer: 31
  m_Name: Layer1
  m_TagString: Untagged
  m_Icon: {fileID: 0}
  m_NavMeshLayer: 0
  m_StaticEditorFlags: 0
  m_IsActive: 1
--- !u!4 &979813685485414098
Transform:
  m_ObjectHideFlags: 0
  m_CorrespondingSourceObject: {fileID: 0}
  m_PrefabInstance: {fileID: 0}
  m_PrefabAsset: {fileID: 0}
  m_GameObject: {fileID: 1356121911968662244}
  m_LocalRotation: {x: -0, y: -0, z: -0, w: 1}
  m_LocalPosition: {x: 0, y: 0, z: 0}
  m_LocalScale: {x: 1, y: 1, z: 1}
  m_Children: []
  m_Father: {fileID: 3109505280737058178}
  m_RootOrder: 0
  m_LocalEulerAnglesHint: {x: 0, y: 0, z: 0}
--- !u!1839735485 &1183701985069463908
Tilemap:
  m_ObjectHideFlags: 0
  m_CorrespondingSourceObject: {fileID: 0}
  m_PrefabInstance: {fileID: 0}
  m_PrefabAsset: {fileID: 0}
  m_GameObject: {fileID: 1356121911968662244}
  m_Enabled: 1
  m_Tiles:
  - first: {x: 3, y: -5, z: 0}
    second:
      m_TileIndex: 40
      m_TileSpriteIndex: 40
      m_TileMatrixIndex: 0
      m_TileColorIndex: 0
      m_ObjectToInstantiate: {fileID: 0}
      m_TileFlags: 1
      m_ColliderType: 1
  - first: {x: 4, y: -5, z: 0}
    second:
      m_TileIndex: 41
      m_TileSpriteIndex: 41
      m_TileMatrixIndex: 0
      m_TileColorIndex: 0
      m_ObjectToInstantiate: {fileID: 0}
      m_TileFlags: 1
      m_ColliderType: 1
  - first: {x: 5, y: -5, z: 0}
    second:
      m_TileIndex: 42
      m_TileSpriteIndex: 42
      m_TileMatrixIndex: 0
      m_TileColorIndex: 0
      m_ObjectToInstantiate: {fileID: 0}
      m_TileFlags: 1
      m_ColliderType: 1
  - first: {x: 6, y: -5, z: 0}
    second:
      m_TileIndex: 43
      m_TileSpriteIndex: 43
      m_TileMatrixIndex: 0
      m_TileColorIndex: 0
      m_ObjectToInstantiate: {fileID: 0}
      m_TileFlags: 1
      m_ColliderType: 1
  - first: {x: 7, y: -5, z: 0}
    second:
      m_TileIndex: 44
      m_TileSpriteIndex: 44
      m_TileMatrixIndex: 0
      m_TileColorIndex: 0
      m_ObjectToInstantiate: {fileID: 0}
      m_TileFlags: 1
      m_ColliderType: 1
  - first: {x: 8, y: -5, z: 0}
    second:
      m_TileIndex: 45
      m_TileSpriteIndex: 45
      m_TileMatrixIndex: 0
      m_TileColorIndex: 0
      m_ObjectToInstantiate: {fileID: 0}
      m_TileFlags: 1
      m_ColliderType: 1
  - first: {x: -1, y: -4, z: 0}
    second:
      m_TileIndex: 9
      m_TileSpriteIndex: 9
      m_TileMatrixIndex: 0
      m_TileColorIndex: 0
      m_ObjectToInstantiate: {fileID: 0}
      m_TileFlags: 1
      m_ColliderType: 1
  - first: {x: 3, y: -4, z: 0}
    second:
      m_TileIndex: 34
      m_TileSpriteIndex: 34
      m_TileMatrixIndex: 0
      m_TileColorIndex: 0
      m_ObjectToInstantiate: {fileID: 0}
      m_TileFlags: 1
      m_ColliderType: 1
  - first: {x: 4, y: -4, z: 0}
    second:
      m_TileIndex: 35
      m_TileSpriteIndex: 35
      m_TileMatrixIndex: 0
      m_TileColorIndex: 0
      m_ObjectToInstantiate: {fileID: 0}
      m_TileFlags: 1
      m_ColliderType: 1
  - first: {x: 5, y: -4, z: 0}
    second:
      m_TileIndex: 36
      m_TileSpriteIndex: 36
      m_TileMatrixIndex: 0
      m_TileColorIndex: 0
      m_ObjectToInstantiate: {fileID: 0}
      m_TileFlags: 1
      m_ColliderType: 1
  - first: {x: 6, y: -4, z: 0}
    second:
      m_TileIndex: 37
      m_TileSpriteIndex: 37
      m_TileMatrixIndex: 0
      m_TileColorIndex: 0
      m_ObjectToInstantiate: {fileID: 0}
      m_TileFlags: 1
      m_ColliderType: 1
  - first: {x: 7, y: -4, z: 0}
    second:
      m_TileIndex: 38
      m_TileSpriteIndex: 38
      m_TileMatrixIndex: 0
      m_TileColorIndex: 0
      m_ObjectToInstantiate: {fileID: 0}
      m_TileFlags: 1
      m_ColliderType: 1
  - first: {x: 8, y: -4, z: 0}
    second:
      m_TileIndex: 39
      m_TileSpriteIndex: 39
      m_TileMatrixIndex: 0
      m_TileColorIndex: 0
      m_ObjectToInstantiate: {fileID: 0}
      m_TileFlags: 1
      m_ColliderType: 1
  - first: {x: -1, y: -3, z: 0}
    second:
      m_TileIndex: 7
      m_TileSpriteIndex: 7
      m_TileMatrixIndex: 0
      m_TileColorIndex: 0
      m_ObjectToInstantiate: {fileID: 0}
      m_TileFlags: 1
      m_ColliderType: 1
  - first: {x: 0, y: -3, z: 0}
    second:
      m_TileIndex: 8
      m_TileSpriteIndex: 8
      m_TileMatrixIndex: 0
      m_TileColorIndex: 0
      m_ObjectToInstantiate: {fileID: 0}
      m_TileFlags: 1
      m_ColliderType: 1
  - first: {x: 3, y: -3, z: 0}
    second:
      m_TileIndex: 28
      m_TileSpriteIndex: 28
      m_TileMatrixIndex: 0
      m_TileColorIndex: 0
      m_ObjectToInstantiate: {fileID: 0}
      m_TileFlags: 1
      m_ColliderType: 1
  - first: {x: 4, y: -3, z: 0}
    second:
      m_TileIndex: 29
      m_TileSpriteIndex: 29
      m_TileMatrixIndex: 0
      m_TileColorIndex: 0
      m_ObjectToInstantiate: {fileID: 0}
      m_TileFlags: 1
      m_ColliderType: 1
  - first: {x: 5, y: -3, z: 0}
    second:
      m_TileIndex: 30
      m_TileSpriteIndex: 30
      m_TileMatrixIndex: 0
      m_TileColorIndex: 0
      m_ObjectToInstantiate: {fileID: 0}
      m_TileFlags: 1
      m_ColliderType: 1
  - first: {x: 6, y: -3, z: 0}
    second:
      m_TileIndex: 31
      m_TileSpriteIndex: 31
      m_TileMatrixIndex: 0
      m_TileColorIndex: 0
      m_ObjectToInstantiate: {fileID: 0}
      m_TileFlags: 1
      m_ColliderType: 1
  - first: {x: 7, y: -3, z: 0}
    second:
      m_TileIndex: 32
      m_TileSpriteIndex: 32
      m_TileMatrixIndex: 0
      m_TileColorIndex: 0
      m_ObjectToInstantiate: {fileID: 0}
      m_TileFlags: 1
      m_ColliderType: 1
  - first: {x: 8, y: -3, z: 0}
    second:
      m_TileIndex: 33
      m_TileSpriteIndex: 33
      m_TileMatrixIndex: 0
      m_TileColorIndex: 0
      m_ObjectToInstantiate: {fileID: 0}
      m_TileFlags: 1
      m_ColliderType: 1
  - first: {x: -1, y: -2, z: 0}
    second:
      m_TileIndex: 5
      m_TileSpriteIndex: 5
      m_TileMatrixIndex: 0
      m_TileColorIndex: 0
      m_ObjectToInstantiate: {fileID: 0}
      m_TileFlags: 1
      m_ColliderType: 1
  - first: {x: 0, y: -2, z: 0}
    second:
      m_TileIndex: 6
      m_TileSpriteIndex: 6
      m_TileMatrixIndex: 0
      m_TileColorIndex: 0
      m_ObjectToInstantiate: {fileID: 0}
      m_TileFlags: 1
      m_ColliderType: 1
  - first: {x: 3, y: -2, z: 0}
    second:
      m_TileIndex: 22
      m_TileSpriteIndex: 22
      m_TileMatrixIndex: 0
      m_TileColorIndex: 0
      m_ObjectToInstantiate: {fileID: 0}
      m_TileFlags: 1
      m_ColliderType: 1
  - first: {x: 4, y: -2, z: 0}
    second:
      m_TileIndex: 23
      m_TileSpriteIndex: 23
      m_TileMatrixIndex: 0
      m_TileColorIndex: 0
      m_ObjectToInstantiate: {fileID: 0}
      m_TileFlags: 1
      m_ColliderType: 1
  - first: {x: 5, y: -2, z: 0}
    second:
      m_TileIndex: 24
      m_TileSpriteIndex: 24
      m_TileMatrixIndex: 0
      m_TileColorIndex: 0
      m_ObjectToInstantiate: {fileID: 0}
      m_TileFlags: 1
      m_ColliderType: 1
  - first: {x: 6, y: -2, z: 0}
    second:
      m_TileIndex: 25
      m_TileSpriteIndex: 25
      m_TileMatrixIndex: 0
      m_TileColorIndex: 0
      m_ObjectToInstantiate: {fileID: 0}
      m_TileFlags: 1
      m_ColliderType: 1
  - first: {x: 7, y: -2, z: 0}
    second:
      m_TileIndex: 26
      m_TileSpriteIndex: 26
      m_TileMatrixIndex: 0
      m_TileColorIndex: 0
      m_ObjectToInstantiate: {fileID: 0}
      m_TileFlags: 1
      m_ColliderType: 1
  - first: {x: 8, y: -2, z: 0}
    second:
      m_TileIndex: 27
      m_TileSpriteIndex: 27
      m_TileMatrixIndex: 0
      m_TileColorIndex: 0
      m_ObjectToInstantiate: {fileID: 0}
      m_TileFlags: 1
      m_ColliderType: 1
  - first: {x: -1, y: -1, z: 0}
    second:
      m_TileIndex: 3
      m_TileSpriteIndex: 3
      m_TileMatrixIndex: 0
      m_TileColorIndex: 0
      m_ObjectToInstantiate: {fileID: 0}
      m_TileFlags: 1
      m_ColliderType: 1
  - first: {x: 0, y: -1, z: 0}
    second:
      m_TileIndex: 4
      m_TileSpriteIndex: 4
      m_TileMatrixIndex: 0
      m_TileColorIndex: 0
      m_ObjectToInstantiate: {fileID: 0}
      m_TileFlags: 1
      m_ColliderType: 1
  - first: {x: 3, y: -1, z: 0}
    second:
      m_TileIndex: 16
      m_TileSpriteIndex: 16
      m_TileMatrixIndex: 0
      m_TileColorIndex: 0
      m_ObjectToInstantiate: {fileID: 0}
      m_TileFlags: 1
      m_ColliderType: 1
  - first: {x: 4, y: -1, z: 0}
    second:
      m_TileIndex: 17
      m_TileSpriteIndex: 17
      m_TileMatrixIndex: 0
      m_TileColorIndex: 0
      m_ObjectToInstantiate: {fileID: 0}
      m_TileFlags: 1
      m_ColliderType: 1
  - first: {x: 5, y: -1, z: 0}
    second:
      m_TileIndex: 18
      m_TileSpriteIndex: 18
      m_TileMatrixIndex: 0
      m_TileColorIndex: 0
      m_ObjectToInstantiate: {fileID: 0}
      m_TileFlags: 1
      m_ColliderType: 1
  - first: {x: 6, y: -1, z: 0}
    second:
      m_TileIndex: 19
      m_TileSpriteIndex: 19
      m_TileMatrixIndex: 0
      m_TileColorIndex: 0
      m_ObjectToInstantiate: {fileID: 0}
      m_TileFlags: 1
      m_ColliderType: 1
  - first: {x: 7, y: -1, z: 0}
    second:
      m_TileIndex: 20
      m_TileSpriteIndex: 20
      m_TileMatrixIndex: 0
      m_TileColorIndex: 0
      m_ObjectToInstantiate: {fileID: 0}
      m_TileFlags: 1
      m_ColliderType: 1
  - first: {x: 8, y: -1, z: 0}
    second:
      m_TileIndex: 21
      m_TileSpriteIndex: 21
      m_TileMatrixIndex: 0
      m_TileColorIndex: 0
      m_ObjectToInstantiate: {fileID: 0}
      m_TileFlags: 1
      m_ColliderType: 1
  - first: {x: -1, y: 0, z: 0}
    second:
      m_TileIndex: 0
      m_TileSpriteIndex: 0
      m_TileMatrixIndex: 0
      m_TileColorIndex: 0
      m_ObjectToInstantiate: {fileID: 0}
      m_TileFlags: 1
      m_ColliderType: 1
  - first: {x: 0, y: 0, z: 0}
    second:
      m_TileIndex: 1
      m_TileSpriteIndex: 1
      m_TileMatrixIndex: 0
      m_TileColorIndex: 0
      m_ObjectToInstantiate: {fileID: 0}
      m_TileFlags: 1
      m_ColliderType: 1
  - first: {x: 1, y: 0, z: 0}
    second:
      m_TileIndex: 2
      m_TileSpriteIndex: 2
      m_TileMatrixIndex: 0
      m_TileColorIndex: 0
      m_ObjectToInstantiate: {fileID: 0}
      m_TileFlags: 1
      m_ColliderType: 1
  - first: {x: 3, y: 0, z: 0}
    second:
      m_TileIndex: 10
      m_TileSpriteIndex: 10
      m_TileMatrixIndex: 0
      m_TileColorIndex: 0
      m_ObjectToInstantiate: {fileID: 0}
      m_TileFlags: 1
      m_ColliderType: 1
  - first: {x: 4, y: 0, z: 0}
    second:
      m_TileIndex: 11
      m_TileSpriteIndex: 11
      m_TileMatrixIndex: 0
      m_TileColorIndex: 0
      m_ObjectToInstantiate: {fileID: 0}
      m_TileFlags: 1
      m_ColliderType: 1
  - first: {x: 5, y: 0, z: 0}
    second:
      m_TileIndex: 12
      m_TileSpriteIndex: 12
      m_TileMatrixIndex: 0
      m_TileColorIndex: 0
      m_ObjectToInstantiate: {fileID: 0}
      m_TileFlags: 1
      m_ColliderType: 1
  - first: {x: 6, y: 0, z: 0}
    second:
      m_TileIndex: 13
      m_TileSpriteIndex: 13
      m_TileMatrixIndex: 0
      m_TileColorIndex: 0
      m_ObjectToInstantiate: {fileID: 0}
      m_TileFlags: 1
      m_ColliderType: 1
  - first: {x: 7, y: 0, z: 0}
    second:
      m_TileIndex: 14
      m_TileSpriteIndex: 14
      m_TileMatrixIndex: 0
      m_TileColorIndex: 0
      m_ObjectToInstantiate: {fileID: 0}
      m_TileFlags: 1
      m_ColliderType: 1
  - first: {x: 8, y: 0, z: 0}
    second:
      m_TileIndex: 15
      m_TileSpriteIndex: 15
      m_TileMatrixIndex: 0
      m_TileColorIndex: 0
      m_ObjectToInstantiate: {fileID: 0}
      m_TileFlags: 1
      m_ColliderType: 1
  m_AnimatedTiles: {}
  m_TileAssetArray:
  - m_RefCount: 1
    m_Data: {fileID: 11400000, guid: b9e1eb3563fef4d4aa5ed1e829899f66, type: 2}
  - m_RefCount: 1
    m_Data: {fileID: 11400000, guid: a97f949c9aef7b34cbcbc66416cf04b9, type: 2}
  - m_RefCount: 1
    m_Data: {fileID: 11400000, guid: 6a487ead44332764fa4236051cc8607c, type: 2}
  - m_RefCount: 1
    m_Data: {fileID: 11400000, guid: 4205123cc7fac884c813357cdadb5997, type: 2}
  - m_RefCount: 1
    m_Data: {fileID: 11400000, guid: 204841fa26e1fcd4d87ccad86432670d, type: 2}
  - m_RefCount: 1
    m_Data: {fileID: 11400000, guid: 52236e123c43bef4d94c0cbf98b5c003, type: 2}
  - m_RefCount: 1
    m_Data: {fileID: 11400000, guid: 8ce978905acf8034683e4156fbab6d14, type: 2}
  - m_RefCount: 1
    m_Data: {fileID: 11400000, guid: a49df0cee3df0ca4a8ecd494b2a691a9, type: 2}
  - m_RefCount: 1
    m_Data: {fileID: 11400000, guid: 2c1c90a713536a74cbcf2f1fb34bcc5f, type: 2}
  - m_RefCount: 1
    m_Data: {fileID: 11400000, guid: 0ec1104810bd01e4cbe65811d4561efc, type: 2}
  - m_RefCount: 1
    m_Data: {fileID: 11400000, guid: 9ff33072810a32646ad58f91875e3311, type: 2}
  - m_RefCount: 1
    m_Data: {fileID: 11400000, guid: 2691b3ed4ce50ab498877640b470eb01, type: 2}
  - m_RefCount: 1
    m_Data: {fileID: 11400000, guid: cde193589f6214a439c940819d662a07, type: 2}
  - m_RefCount: 1
    m_Data: {fileID: 11400000, guid: ad34c775ffea9d0449f72351dc793944, type: 2}
  - m_RefCount: 1
    m_Data: {fileID: 11400000, guid: 349d4516fdbe77643a45448403aa71ae, type: 2}
  - m_RefCount: 1
    m_Data: {fileID: 11400000, guid: 03340c98e124e46478fd5e01fbf35250, type: 2}
  - m_RefCount: 1
    m_Data: {fileID: 11400000, guid: 33ccaf00f78cbe1448613421f77d5862, type: 2}
  - m_RefCount: 1
    m_Data: {fileID: 11400000, guid: 7a10b0c4f17ba7e4a998a40c8fd1811c, type: 2}
  - m_RefCount: 1
    m_Data: {fileID: 11400000, guid: 4a271054de90d224dac7750289bafd87, type: 2}
  - m_RefCount: 1
    m_Data: {fileID: 11400000, guid: 7721e97fe1364dc41b5bfafd7d6691ff, type: 2}
  - m_RefCount: 1
    m_Data: {fileID: 11400000, guid: 99b918e8a8f0bce43b53eb0a259a908d, type: 2}
  - m_RefCount: 1
    m_Data: {fileID: 11400000, guid: b41c7935e83887e44bb825b171cf963c, type: 2}
  - m_RefCount: 1
    m_Data: {fileID: 11400000, guid: 24382b1bffc8cab43a12d9c87486d483, type: 2}
  - m_RefCount: 1
    m_Data: {fileID: 11400000, guid: 3b5d88384b6ea9142a0b12e523c7f312, type: 2}
  - m_RefCount: 1
    m_Data: {fileID: 11400000, guid: 323f072d6a71d1642b99cf35769eb2af, type: 2}
  - m_RefCount: 1
    m_Data: {fileID: 11400000, guid: 4757a0d497ca6dc49a4276534681e346, type: 2}
  - m_RefCount: 1
    m_Data: {fileID: 11400000, guid: 1653daf788a862f4aad073acc3c5ee00, type: 2}
  - m_RefCount: 1
    m_Data: {fileID: 11400000, guid: eb0cf8c49ac79d2438174faa22c5c104, type: 2}
  - m_RefCount: 1
    m_Data: {fileID: 11400000, guid: a070bfd92c3627345bd3756fbb359405, type: 2}
  - m_RefCount: 1
    m_Data: {fileID: 11400000, guid: 9ccc0013de0423e42a723d944b8f18f4, type: 2}
  - m_RefCount: 1
    m_Data: {fileID: 11400000, guid: a526ca4aa73782248895758d87a2008f, type: 2}
  - m_RefCount: 1
    m_Data: {fileID: 11400000, guid: da76e6d8e10877b49a6129c27909801a, type: 2}
  - m_RefCount: 1
    m_Data: {fileID: 11400000, guid: 61c713ed15603ca4498f473ccd8b18c9, type: 2}
  - m_RefCount: 1
    m_Data: {fileID: 11400000, guid: 6fe88dce3a1cb944b91b413f37091985, type: 2}
  - m_RefCount: 1
    m_Data: {fileID: 11400000, guid: 07e452f317945cf42b7730872258f976, type: 2}
  - m_RefCount: 1
    m_Data: {fileID: 11400000, guid: 7aba19d7f92c7e345a625a6ed442e9f9, type: 2}
  - m_RefCount: 1
    m_Data: {fileID: 11400000, guid: ef4ca8c8408ad1b47aa6fe531dd7cf50, type: 2}
  - m_RefCount: 1
    m_Data: {fileID: 11400000, guid: 103e29b1f9c0f85438e450b31de0b7bb, type: 2}
  - m_RefCount: 1
    m_Data: {fileID: 11400000, guid: 6616d5a205e143040be21968523eb2a7, type: 2}
  - m_RefCount: 1
    m_Data: {fileID: 11400000, guid: aff92b6b9e4aeea498f2b2ede77d86ee, type: 2}
  - m_RefCount: 1
    m_Data: {fileID: 11400000, guid: 7b1f0f4934b736040a406e45d666e7e1, type: 2}
  - m_RefCount: 1
    m_Data: {fileID: 11400000, guid: 2669d4a7b09563940bd525bfba1330ee, type: 2}
  - m_RefCount: 1
    m_Data: {fileID: 11400000, guid: bf06801971485474e974f053f9bfe237, type: 2}
  - m_RefCount: 1
    m_Data: {fileID: 11400000, guid: 458f40833f8088d4b98eea6e7f254244, type: 2}
  - m_RefCount: 1
    m_Data: {fileID: 11400000, guid: 34b24fc0a6cb8f44d8438212e19fab52, type: 2}
  - m_RefCount: 1
    m_Data: {fileID: 11400000, guid: c5f9c0139224e71409d9961cd4dc0f0e, type: 2}
  m_TileSpriteArray:
  - m_RefCount: 1
    m_Data: {fileID: 21300000, guid: 87c01910ba2f98443810294a093bec8c, type: 3}
  - m_RefCount: 1
    m_Data: {fileID: 21300002, guid: 87c01910ba2f98443810294a093bec8c, type: 3}
  - m_RefCount: 1
    m_Data: {fileID: 21300004, guid: 87c01910ba2f98443810294a093bec8c, type: 3}
  - m_RefCount: 1
    m_Data: {fileID: 21300006, guid: 87c01910ba2f98443810294a093bec8c, type: 3}
  - m_RefCount: 1
    m_Data: {fileID: 21300008, guid: 87c01910ba2f98443810294a093bec8c, type: 3}
  - m_RefCount: 1
    m_Data: {fileID: 21300000, guid: 2a62c9e25e35c624e9a9c722eef3d39e, type: 3}
  - m_RefCount: 1
    m_Data: {fileID: 21300002, guid: 2a62c9e25e35c624e9a9c722eef3d39e, type: 3}
  - m_RefCount: 1
    m_Data: {fileID: 21300004, guid: 2a62c9e25e35c624e9a9c722eef3d39e, type: 3}
  - m_RefCount: 1
    m_Data: {fileID: 21300006, guid: 2a62c9e25e35c624e9a9c722eef3d39e, type: 3}
  - m_RefCount: 1
    m_Data: {fileID: 21300000, guid: c31a192a2abe6a240bb13d1305b6d645, type: 3}
  - m_RefCount: 1
    m_Data: {fileID: 21300000, guid: acdec57bd38409a46aafbcf8700e91d1, type: 3}
  - m_RefCount: 1
    m_Data: {fileID: 21300002, guid: acdec57bd38409a46aafbcf8700e91d1, type: 3}
  - m_RefCount: 1
    m_Data: {fileID: 21300004, guid: acdec57bd38409a46aafbcf8700e91d1, type: 3}
  - m_RefCount: 1
    m_Data: {fileID: 21300006, guid: acdec57bd38409a46aafbcf8700e91d1, type: 3}
  - m_RefCount: 1
    m_Data: {fileID: 21300008, guid: acdec57bd38409a46aafbcf8700e91d1, type: 3}
  - m_RefCount: 1
    m_Data: {fileID: 21300010, guid: acdec57bd38409a46aafbcf8700e91d1, type: 3}
  - m_RefCount: 1
    m_Data: {fileID: 21300012, guid: acdec57bd38409a46aafbcf8700e91d1, type: 3}
  - m_RefCount: 1
    m_Data: {fileID: 21300014, guid: acdec57bd38409a46aafbcf8700e91d1, type: 3}
  - m_RefCount: 1
    m_Data: {fileID: 21300016, guid: acdec57bd38409a46aafbcf8700e91d1, type: 3}
  - m_RefCount: 1
    m_Data: {fileID: 21300018, guid: acdec57bd38409a46aafbcf8700e91d1, type: 3}
  - m_RefCount: 1
    m_Data: {fileID: 21300020, guid: acdec57bd38409a46aafbcf8700e91d1, type: 3}
  - m_RefCount: 1
    m_Data: {fileID: 21300022, guid: acdec57bd38409a46aafbcf8700e91d1, type: 3}
  - m_RefCount: 1
    m_Data: {fileID: 21300024, guid: acdec57bd38409a46aafbcf8700e91d1, type: 3}
  - m_RefCount: 1
    m_Data: {fileID: 21300026, guid: acdec57bd38409a46aafbcf8700e91d1, type: 3}
  - m_RefCount: 1
    m_Data: {fileID: 21300028, guid: acdec57bd38409a46aafbcf8700e91d1, type: 3}
  - m_RefCount: 1
    m_Data: {fileID: 21300030, guid: acdec57bd38409a46aafbcf8700e91d1, type: 3}
  - m_RefCount: 1
    m_Data: {fileID: 21300032, guid: acdec57bd38409a46aafbcf8700e91d1, type: 3}
  - m_RefCount: 1
    m_Data: {fileID: 21300034, guid: acdec57bd38409a46aafbcf8700e91d1, type: 3}
  - m_RefCount: 1
    m_Data: {fileID: 21300036, guid: acdec57bd38409a46aafbcf8700e91d1, type: 3}
  - m_RefCount: 1
    m_Data: {fileID: 21300038, guid: acdec57bd38409a46aafbcf8700e91d1, type: 3}
  - m_RefCount: 1
    m_Data: {fileID: 21300040, guid: acdec57bd38409a46aafbcf8700e91d1, type: 3}
  - m_RefCount: 1
    m_Data: {fileID: 21300042, guid: acdec57bd38409a46aafbcf8700e91d1, type: 3}
  - m_RefCount: 1
    m_Data: {fileID: 21300044, guid: acdec57bd38409a46aafbcf8700e91d1, type: 3}
  - m_RefCount: 1
    m_Data: {fileID: 21300046, guid: acdec57bd38409a46aafbcf8700e91d1, type: 3}
  - m_RefCount: 1
    m_Data: {fileID: 21300048, guid: acdec57bd38409a46aafbcf8700e91d1, type: 3}
  - m_RefCount: 1
    m_Data: {fileID: 21300050, guid: acdec57bd38409a46aafbcf8700e91d1, type: 3}
  - m_RefCount: 1
    m_Data: {fileID: 21300052, guid: acdec57bd38409a46aafbcf8700e91d1, type: 3}
  - m_RefCount: 1
    m_Data: {fileID: 21300054, guid: acdec57bd38409a46aafbcf8700e91d1, type: 3}
  - m_RefCount: 1
    m_Data: {fileID: 21300056, guid: acdec57bd38409a46aafbcf8700e91d1, type: 3}
  - m_RefCount: 1
    m_Data: {fileID: 21300058, guid: acdec57bd38409a46aafbcf8700e91d1, type: 3}
  - m_RefCount: 1
    m_Data: {fileID: 21300060, guid: acdec57bd38409a46aafbcf8700e91d1, type: 3}
  - m_RefCount: 1
    m_Data: {fileID: 21300062, guid: acdec57bd38409a46aafbcf8700e91d1, type: 3}
  - m_RefCount: 1
    m_Data: {fileID: 21300064, guid: acdec57bd38409a46aafbcf8700e91d1, type: 3}
  - m_RefCount: 1
    m_Data: {fileID: 21300066, guid: acdec57bd38409a46aafbcf8700e91d1, type: 3}
  - m_RefCount: 1
    m_Data: {fileID: 21300068, guid: acdec57bd38409a46aafbcf8700e91d1, type: 3}
  - m_RefCount: 1
    m_Data: {fileID: 21300070, guid: acdec57bd38409a46aafbcf8700e91d1, type: 3}
  m_TileMatrixArray:
  - m_RefCount: 46
    m_Data:
      e00: 1
      e01: 0
      e02: 0
      e03: 0
      e10: 0
      e11: 1
      e12: 0
      e13: 0
      e20: 0
      e21: 0
      e22: 1
      e23: 0
      e30: 0
      e31: 0
      e32: 0
      e33: 1
  m_TileColorArray:
  - m_RefCount: 46
    m_Data: {r: 1, g: 1, b: 1, a: 1}
  m_AnimationFrameRate: 1
  m_Color: {r: 1, g: 1, b: 1, a: 1}
  m_Origin: {x: -1, y: -5, z: 0}
  m_Size: {x: 10, y: 6, z: 1}
  m_TileAnchor: {x: 0.5, y: 0.5, z: 0}
  m_TileOrientation: 0
  m_TileOrientationMatrix:
    e00: 1
    e01: 0
    e02: 0
    e03: 0
    e10: 0
    e11: 1
    e12: 0
    e13: 0
    e20: 0
    e21: 0
    e22: 1
    e23: 0
    e30: 0
    e31: 0
    e32: 0
    e33: 1
--- !u!483693784 &6437119857474881961
TilemapRenderer:
  m_ObjectHideFlags: 0
  m_CorrespondingSourceObject: {fileID: 0}
  m_PrefabInstance: {fileID: 0}
  m_PrefabAsset: {fileID: 0}
  m_GameObject: {fileID: 1356121911968662244}
  m_Enabled: 0
  m_CastShadows: 0
  m_ReceiveShadows: 0
  m_DynamicOccludee: 0
  m_MotionVectors: 1
  m_LightProbeUsage: 0
  m_ReflectionProbeUsage: 0
  m_RenderingLayerMask: 1
  m_RendererPriority: 0
  m_Materials:
  - {fileID: 10754, guid: 0000000000000000f000000000000000, type: 0}
  m_StaticBatchInfo:
    firstSubMesh: 0
    subMeshCount: 0
  m_StaticBatchRoot: {fileID: 0}
  m_ProbeAnchor: {fileID: 0}
  m_LightProbeVolumeOverride: {fileID: 0}
  m_ScaleInLightmap: 1
  m_PreserveUVs: 0
  m_IgnoreNormalsForChartDetection: 0
  m_ImportantGI: 0
  m_StitchLightmapSeams: 0
  m_SelectedEditorRenderState: 0
  m_MinimumChartSize: 4
  m_AutoUVMaxDistance: 0.5
  m_AutoUVMaxAngle: 89
  m_LightmapParameters: {fileID: 0}
  m_SortingLayerID: 0
  m_SortingLayer: 0
  m_SortingOrder: 0
  m_ChunkSize: {x: 32, y: 32, z: 32}
  m_ChunkCullingBounds: {x: 0, y: 0, z: 0}
  m_MaxChunkCount: 16
  m_MaxFrameAge: 16
  m_SortOrder: 0
  m_Mode: 0
  m_DetectChunkCullingBounds: 0
  m_MaskInteraction: 0
--- !u!1 &8403468559318899668
GameObject:
  m_ObjectHideFlags: 0
  m_CorrespondingSourceObject: {fileID: 0}
  m_PrefabInstance: {fileID: 0}
  m_PrefabAsset: {fileID: 0}
  serializedVersion: 6
  m_Component:
  - component: {fileID: 3109505280737058178}
  - component: {fileID: 8785110019886554262}
  m_Layer: 31
  m_Name: Accent
  m_TagString: Untagged
  m_Icon: {fileID: 0}
  m_NavMeshLayer: 0
  m_StaticEditorFlags: 0
  m_IsActive: 1
--- !u!4 &3109505280737058178
Transform:
  m_ObjectHideFlags: 0
  m_CorrespondingSourceObject: {fileID: 0}
  m_PrefabInstance: {fileID: 0}
  m_PrefabAsset: {fileID: 0}
  m_GameObject: {fileID: 8403468559318899668}
  m_LocalRotation: {x: 0, y: 0, z: 0, w: 1}
  m_LocalPosition: {x: 0, y: 0, z: 0}
  m_LocalScale: {x: 1, y: 1, z: 1}
  m_Children:
  - {fileID: 979813685485414098}
  m_Father: {fileID: 0}
  m_RootOrder: 0
  m_LocalEulerAnglesHint: {x: 0, y: 0, z: 0}
--- !u!156049354 &8785110019886554262
Grid:
  m_ObjectHideFlags: 0
  m_CorrespondingSourceObject: {fileID: 0}
  m_PrefabInstance: {fileID: 0}
  m_PrefabAsset: {fileID: 0}
  m_GameObject: {fileID: 8403468559318899668}
  m_Enabled: 1
  m_CellSize: {x: 2, y: 2, z: 0}
  m_CellGap: {x: 0, y: 0, z: 0}
  m_CellLayout: 0
  m_CellSwizzle: 0
--- !u!114 &114753253562647062
MonoBehaviour:
  m_ObjectHideFlags: 0
  m_CorrespondingSourceObject: {fileID: 0}
  m_PrefabInstance: {fileID: 0}
  m_PrefabAsset: {fileID: 0}
  m_GameObject: {fileID: 0}
  m_Enabled: 1
  m_EditorHideFlags: 0
  m_Script: {fileID: 12395, guid: 0000000000000000e000000000000000, type: 0}
  m_Name: Palette Settings
  m_EditorClassIdentifier: 
  cellSizing: 0
