%YAML 1.1
%TAG !u! tag:unity3d.com,2011:
--- !u!1 &2076289014713045044
GameObject:
  m_ObjectHideFlags: 0
  m_CorrespondingSourceObject: {fileID: 0}
  m_PrefabInstance: {fileID: 0}
  m_PrefabAsset: {fileID: 0}
  serializedVersion: 6
  m_Component:
  - component: {fileID: 7123089026390667950}
  - component: {fileID: 5665101685715634144}
  - component: {fileID: 7618684226585306539}
  m_Layer: 31
  m_Name: Layer1
  m_TagString: Untagged
  m_Icon: {fileID: 0}
  m_NavMeshLayer: 0
  m_StaticEditorFlags: 0
  m_IsActive: 1
--- !u!4 &7123089026390667950
Transform:
  m_ObjectHideFlags: 0
  m_CorrespondingSourceObject: {fileID: 0}
  m_PrefabInstance: {fileID: 0}
  m_PrefabAsset: {fileID: 0}
  m_GameObject: {fileID: 2076289014713045044}
  m_LocalRotation: {x: -0, y: -0, z: -0, w: 1}
  m_LocalPosition: {x: 0, y: 0, z: 0}
  m_LocalScale: {x: 1, y: 1, z: 1}
  m_Children: []
  m_Father: {fileID: 6949735190086560558}
  m_RootOrder: 0
  m_LocalEulerAnglesHint: {x: 0, y: 0, z: 0}
--- !u!1839735485 &5665101685715634144
Tilemap:
  m_ObjectHideFlags: 0
  m_CorrespondingSourceObject: {fileID: 0}
  m_PrefabInstance: {fileID: 0}
  m_PrefabAsset: {fileID: 0}
  m_GameObject: {fileID: 2076289014713045044}
  m_Enabled: 1
  m_Tiles:
  - first: {x: -1, y: -3, z: 0}
    second:
      m_TileIndex: 12
      m_TileSpriteIndex: 12
      m_TileMatrixIndex: 0
      m_TileColorIndex: 0
      m_ObjectToInstantiate: {fileID: 0}
      m_TileFlags: 1
      m_ColliderType: 1
  - first: {x: 0, y: -3, z: 0}
    second:
      m_TileIndex: 13
      m_TileSpriteIndex: 13
      m_TileMatrixIndex: 0
      m_TileColorIndex: 0
      m_ObjectToInstantiate: {fileID: 0}
      m_TileFlags: 1
      m_ColliderType: 1
  - first: {x: 1, y: -3, z: 0}
    second:
      m_TileIndex: 14
      m_TileSpriteIndex: 14
      m_TileMatrixIndex: 0
      m_TileColorIndex: 0
      m_ObjectToInstantiate: {fileID: 0}
      m_TileFlags: 1
      m_ColliderType: 1
  - first: {x: 2, y: -3, z: 0}
    second:
      m_TileIndex: 15
      m_TileSpriteIndex: 15
      m_TileMatrixIndex: 0
      m_TileColorIndex: 0
      m_ObjectToInstantiate: {fileID: 0}
      m_TileFlags: 1
      m_ColliderType: 1
  - first: {x: 3, y: -3, z: 0}
    second:
      m_TileIndex: 16
      m_TileSpriteIndex: 16
      m_TileMatrixIndex: 0
      m_TileColorIndex: 0
      m_ObjectToInstantiate: {fileID: 0}
      m_TileFlags: 1
      m_ColliderType: 1
  - first: {x: 4, y: -3, z: 0}
    second:
      m_TileIndex: 17
      m_TileSpriteIndex: 17
      m_TileMatrixIndex: 0
      m_TileColorIndex: 0
      m_ObjectToInstantiate: {fileID: 0}
      m_TileFlags: 1
      m_ColliderType: 1
  - first: {x: -1, y: -2, z: 0}
    second:
      m_TileIndex: 6
      m_TileSpriteIndex: 6
      m_TileMatrixIndex: 0
      m_TileColorIndex: 0
      m_ObjectToInstantiate: {fileID: 0}
      m_TileFlags: 1
      m_ColliderType: 1
  - first: {x: 0, y: -2, z: 0}
    second:
      m_TileIndex: 7
      m_TileSpriteIndex: 7
      m_TileMatrixIndex: 0
      m_TileColorIndex: 0
      m_ObjectToInstantiate: {fileID: 0}
      m_TileFlags: 1
      m_ColliderType: 1
  - first: {x: 1, y: -2, z: 0}
    second:
      m_TileIndex: 8
      m_TileSpriteIndex: 8
      m_TileMatrixIndex: 0
      m_TileColorIndex: 0
      m_ObjectToInstantiate: {fileID: 0}
      m_TileFlags: 1
      m_ColliderType: 1
  - first: {x: 2, y: -2, z: 0}
    second:
      m_TileIndex: 9
      m_TileSpriteIndex: 9
      m_TileMatrixIndex: 0
      m_TileColorIndex: 0
      m_ObjectToInstantiate: {fileID: 0}
      m_TileFlags: 1
      m_ColliderType: 1
  - first: {x: 3, y: -2, z: 0}
    second:
      m_TileIndex: 10
      m_TileSpriteIndex: 10
      m_TileMatrixIndex: 0
      m_TileColorIndex: 0
      m_ObjectToInstantiate: {fileID: 0}
      m_TileFlags: 1
      m_ColliderType: 1
  - first: {x: 4, y: -2, z: 0}
    second:
      m_TileIndex: 11
      m_TileSpriteIndex: 11
      m_TileMatrixIndex: 0
      m_TileColorIndex: 0
      m_ObjectToInstantiate: {fileID: 0}
      m_TileFlags: 1
      m_ColliderType: 1
  - first: {x: -1, y: -1, z: 0}
    second:
      m_TileIndex: 0
      m_TileSpriteIndex: 0
      m_TileMatrixIndex: 0
      m_TileColorIndex: 0
      m_ObjectToInstantiate: {fileID: 0}
      m_TileFlags: 1
      m_ColliderType: 1
  - first: {x: 0, y: -1, z: 0}
    second:
      m_TileIndex: 1
      m_TileSpriteIndex: 1
      m_TileMatrixIndex: 0
      m_TileColorIndex: 0
      m_ObjectToInstantiate: {fileID: 0}
      m_TileFlags: 1
      m_ColliderType: 1
  - first: {x: 1, y: -1, z: 0}
    second:
      m_TileIndex: 2
      m_TileSpriteIndex: 2
      m_TileMatrixIndex: 0
      m_TileColorIndex: 0
      m_ObjectToInstantiate: {fileID: 0}
      m_TileFlags: 1
      m_ColliderType: 1
  - first: {x: 2, y: -1, z: 0}
    second:
      m_TileIndex: 3
      m_TileSpriteIndex: 3
      m_TileMatrixIndex: 0
      m_TileColorIndex: 0
      m_ObjectToInstantiate: {fileID: 0}
      m_TileFlags: 1
      m_ColliderType: 1
  - first: {x: 3, y: -1, z: 0}
    second:
      m_TileIndex: 4
      m_TileSpriteIndex: 4
      m_TileMatrixIndex: 0
      m_TileColorIndex: 0
      m_ObjectToInstantiate: {fileID: 0}
      m_TileFlags: 1
      m_ColliderType: 1
  - first: {x: 4, y: -1, z: 0}
    second:
      m_TileIndex: 5
      m_TileSpriteIndex: 5
      m_TileMatrixIndex: 0
      m_TileColorIndex: 0
      m_ObjectToInstantiate: {fileID: 0}
      m_TileFlags: 1
      m_ColliderType: 1
  m_AnimatedTiles: {}
  m_TileAssetArray:
  - m_RefCount: 1
    m_Data: {fileID: 11400000, guid: 53840338f30d6e945a7a6ba8e9e1bc74, type: 2}
  - m_RefCount: 1
    m_Data: {fileID: 11400000, guid: 5223065b68d98864990c2b706f6220a6, type: 2}
  - m_RefCount: 1
    m_Data: {fileID: 11400000, guid: 2bd1db9f682a450439a116b1f5e0485f, type: 2}
  - m_RefCount: 1
    m_Data: {fileID: 11400000, guid: 03dad560e32a5d245b40e287e06e5225, type: 2}
  - m_RefCount: 1
    m_Data: {fileID: 11400000, guid: f7f4d9b201e56294db33f2dc9f2c7b2f, type: 2}
  - m_RefCount: 1
    m_Data: {fileID: 11400000, guid: 4bbd6e67af4b3f74ab323bb1cdb8866c, type: 2}
  - m_RefCount: 1
    m_Data: {fileID: 11400000, guid: ac4d195fca9f0934bbcf8fcecadf26d1, type: 2}
  - m_RefCount: 1
    m_Data: {fileID: 11400000, guid: 789c1df2baa117146a58145bf23d1063, type: 2}
  - m_RefCount: 1
    m_Data: {fileID: 11400000, guid: 62867166f3156004aa5a439e8c4f87b0, type: 2}
  - m_RefCount: 1
    m_Data: {fileID: 11400000, guid: ef3309ab2ca632847bcc2d123c477db0, type: 2}
  - m_RefCount: 1
    m_Data: {fileID: 11400000, guid: 0cc87d217abb5874da52f68bd9ed156b, type: 2}
  - m_RefCount: 1
    m_Data: {fileID: 11400000, guid: d93b020a1996b6d4f9f0f8a7f390f76f, type: 2}
  - m_RefCount: 1
    m_Data: {fileID: 11400000, guid: 5097b34ee58c00749931ff56c1a9f2c9, type: 2}
  - m_RefCount: 1
    m_Data: {fileID: 11400000, guid: b0c9c8525e1f9e44796201b86372502e, type: 2}
  - m_RefCount: 1
    m_Data: {fileID: 11400000, guid: 0d180b667ec64244bbcd6b57a9303bb3, type: 2}
  - m_RefCount: 1
    m_Data: {fileID: 11400000, guid: 16b0d0b2dcb5dbd49b39e22f206ece66, type: 2}
  - m_RefCount: 1
    m_Data: {fileID: 11400000, guid: bc37a2d0bee91b44bb7ab0e411589caf, type: 2}
  - m_RefCount: 1
    m_Data: {fileID: 11400000, guid: 4f7aad2a4bf04274f84453756bbdc189, type: 2}
  m_TileSpriteArray:
  - m_RefCount: 1
    m_Data: {fileID: 21300000, guid: 87f3a33f6d1bb704ebbe000edb674c97, type: 3}
  - m_RefCount: 1
    m_Data: {fileID: 21300002, guid: 87f3a33f6d1bb704ebbe000edb674c97, type: 3}
  - m_RefCount: 1
    m_Data: {fileID: 21300004, guid: 87f3a33f6d1bb704ebbe000edb674c97, type: 3}
  - m_RefCount: 1
    m_Data: {fileID: 21300006, guid: 87f3a33f6d1bb704ebbe000edb674c97, type: 3}
  - m_RefCount: 1
    m_Data: {fileID: 21300008, guid: 87f3a33f6d1bb704ebbe000edb674c97, type: 3}
  - m_RefCount: 1
    m_Data: {fileID: 21300010, guid: 87f3a33f6d1bb704ebbe000edb674c97, type: 3}
  - m_RefCount: 1
    m_Data: {fileID: 21300012, guid: 87f3a33f6d1bb704ebbe000edb674c97, type: 3}
  - m_RefCount: 1
    m_Data: {fileID: 21300014, guid: 87f3a33f6d1bb704ebbe000edb674c97, type: 3}
  - m_RefCount: 1
    m_Data: {fileID: 21300016, guid: 87f3a33f6d1bb704ebbe000edb674c97, type: 3}
  - m_RefCount: 1
    m_Data: {fileID: 21300018, guid: 87f3a33f6d1bb704ebbe000edb674c97, type: 3}
  - m_RefCount: 1
    m_Data: {fileID: 21300020, guid: 87f3a33f6d1bb704ebbe000edb674c97, type: 3}
  - m_RefCount: 1
    m_Data: {fileID: 21300022, guid: 87f3a33f6d1bb704ebbe000edb674c97, type: 3}
  - m_RefCount: 1
    m_Data: {fileID: 21300024, guid: 87f3a33f6d1bb704ebbe000edb674c97, type: 3}
  - m_RefCount: 1
    m_Data: {fileID: 21300026, guid: 87f3a33f6d1bb704ebbe000edb674c97, type: 3}
  - m_RefCount: 1
    m_Data: {fileID: 21300028, guid: 87f3a33f6d1bb704ebbe000edb674c97, type: 3}
  - m_RefCount: 1
    m_Data: {fileID: 21300030, guid: 87f3a33f6d1bb704ebbe000edb674c97, type: 3}
  - m_RefCount: 1
    m_Data: {fileID: 21300032, guid: 87f3a33f6d1bb704ebbe000edb674c97, type: 3}
  - m_RefCount: 1
    m_Data: {fileID: 21300034, guid: 87f3a33f6d1bb704ebbe000edb674c97, type: 3}
  m_TileMatrixArray:
  - m_RefCount: 18
    m_Data:
      e00: 1
      e01: 0
      e02: 0
      e03: 0
      e10: 0
      e11: 1
      e12: 0
      e13: 0
      e20: 0
      e21: 0
      e22: 1
      e23: 0
      e30: 0
      e31: 0
      e32: 0
      e33: 1
  m_TileColorArray:
  - m_RefCount: 18
    m_Data: {r: 1, g: 1, b: 1, a: 1}
  m_AnimationFrameRate: 1
  m_Color: {r: 1, g: 1, b: 1, a: 1}
  m_Origin: {x: -1, y: -3, z: 0}
  m_Size: {x: 6, y: 3, z: 1}
  m_TileAnchor: {x: 0.5, y: 0.5, z: 0}
  m_TileOrientation: 0
  m_TileOrientationMatrix:
    e00: 1
    e01: 0
    e02: 0
    e03: 0
    e10: 0
    e11: 1
    e12: 0
    e13: 0
    e20: 0
    e21: 0
    e22: 1
    e23: 0
    e30: 0
    e31: 0
    e32: 0
    e33: 1
--- !u!483693784 &7618684226585306539
TilemapRenderer:
  m_ObjectHideFlags: 0
  m_CorrespondingSourceObject: {fileID: 0}
  m_PrefabInstance: {fileID: 0}
  m_PrefabAsset: {fileID: 0}
  m_GameObject: {fileID: 2076289014713045044}
  m_Enabled: 0
  m_CastShadows: 0
  m_ReceiveShadows: 0
  m_DynamicOccludee: 0
  m_MotionVectors: 1
  m_LightProbeUsage: 0
  m_ReflectionProbeUsage: 0
  m_RenderingLayerMask: 1
  m_RendererPriority: 0
  m_Materials:
  - {fileID: 10754, guid: 0000000000000000f000000000000000, type: 0}
  m_StaticBatchInfo:
    firstSubMesh: 0
    subMeshCount: 0
  m_StaticBatchRoot: {fileID: 0}
  m_ProbeAnchor: {fileID: 0}
  m_LightProbeVolumeOverride: {fileID: 0}
  m_ScaleInLightmap: 1
  m_PreserveUVs: 0
  m_IgnoreNormalsForChartDetection: 0
  m_ImportantGI: 0
  m_StitchLightmapSeams: 0
  m_SelectedEditorRenderState: 0
  m_MinimumChartSize: 4
  m_AutoUVMaxDistance: 0.5
  m_AutoUVMaxAngle: 89
  m_LightmapParameters: {fileID: 0}
  m_SortingLayerID: 0
  m_SortingLayer: 0
  m_SortingOrder: 0
  m_ChunkSize: {x: 32, y: 32, z: 32}
  m_ChunkCullingBounds: {x: 0, y: 0, z: 0}
  m_MaxChunkCount: 16
  m_MaxFrameAge: 16
  m_SortOrder: 0
  m_Mode: 0
  m_DetectChunkCullingBounds: 0
  m_MaskInteraction: 0
--- !u!1 &7903263190999917615
GameObject:
  m_ObjectHideFlags: 0
  m_CorrespondingSourceObject: {fileID: 0}
  m_PrefabInstance: {fileID: 0}
  m_PrefabAsset: {fileID: 0}
  serializedVersion: 6
  m_Component:
  - component: {fileID: 6949735190086560558}
  - component: {fileID: 1560589814259745708}
  m_Layer: 31
  m_Name: Path
  m_TagString: Untagged
  m_Icon: {fileID: 0}
  m_NavMeshLayer: 0
  m_StaticEditorFlags: 0
  m_IsActive: 1
--- !u!4 &6949735190086560558
Transform:
  m_ObjectHideFlags: 0
  m_CorrespondingSourceObject: {fileID: 0}
  m_PrefabInstance: {fileID: 0}
  m_PrefabAsset: {fileID: 0}
  m_GameObject: {fileID: 7903263190999917615}
  m_LocalRotation: {x: 0, y: 0, z: 0, w: 1}
  m_LocalPosition: {x: 0, y: 0, z: 0}
  m_LocalScale: {x: 1, y: 1, z: 1}
  m_Children:
  - {fileID: 7123089026390667950}
  m_Father: {fileID: 0}
  m_RootOrder: 0
  m_LocalEulerAnglesHint: {x: 0, y: 0, z: 0}
--- !u!156049354 &1560589814259745708
Grid:
  m_ObjectHideFlags: 0
  m_CorrespondingSourceObject: {fileID: 0}
  m_PrefabInstance: {fileID: 0}
  m_PrefabAsset: {fileID: 0}
  m_GameObject: {fileID: 7903263190999917615}
  m_Enabled: 1
  m_CellSize: {x: 1, y: 1, z: 0}
  m_CellGap: {x: 0, y: 0, z: 0}
  m_CellLayout: 0
  m_CellSwizzle: 0
--- !u!114 &114194687526032318
MonoBehaviour:
  m_ObjectHideFlags: 0
  m_CorrespondingSourceObject: {fileID: 0}
  m_PrefabInstance: {fileID: 0}
  m_PrefabAsset: {fileID: 0}
  m_GameObject: {fileID: 0}
  m_Enabled: 1
  m_EditorHideFlags: 0
  m_Script: {fileID: 12395, guid: 0000000000000000e000000000000000, type: 0}
  m_Name: Palette Settings
  m_EditorClassIdentifier: 
  cellSizing: 0
