%YAML 1.1
%TAG !u! tag:unity3d.com,2011:
--- !u!74 &7400000
AnimationClip:
  m_ObjectHideFlags: 0
  m_CorrespondingSourceObject: {fileID: 0}
  m_PrefabInstance: {fileID: 0}
  m_PrefabAsset: {fileID: 0}
  m_Name: BioPlastic_Attack
  serializedVersion: 6
  m_Legacy: 0
  m_Compressed: 0
  m_UseHighQualityCurve: 1
  m_RotationCurves: []
  m_CompressedRotationCurves: []
  m_EulerCurves: []
  m_PositionCurves: []
  m_ScaleCurves: []
  m_FloatCurves: []
  m_PPtrCurves:
  - curve:
    - time: 0
      value: {fileID: 21300000, guid: 1df4d35414ee9b54582f17ae30746eb2, type: 3}
    - time: 0.083333336
      value: {fileID: 21300000, guid: 8553a8208882a29458ad7d06d18ab0de, type: 3}
    - time: 0.16666667
      value: {fileID: 21300000, guid: 83cf4c974a7bef24b94f3a9dc838b11a, type: 3}
    - time: 0.25
      value: {fileID: 21300000, guid: 152bac925404eb74691e8c7b0bb6e1ba, type: 3}
    - time: 0.33333334
      value: {fileID: 21300000, guid: 42f76e0b19b3dd447b9b9d7ae5f01331, type: 3}
    - time: 0.41666666
      value: {fileID: 21300000, guid: edb068beaf380ad4b97ba053507c9f55, type: 3}
    - time: 0.5
      value: {fileID: 21300000, guid: 7dd0c017969266f47a3fa5419b26b34a, type: 3}
    - time: 0.5833333
      value: {fileID: 21300000, guid: 076b2e0f1ced50a4ea31857e701416a9, type: 3}
    - time: 0.6666667
      value: {fileID: 21300000, guid: 99454bcafaa103e4894d485f0ba92b8f, type: 3}
    - time: 0.75
      value: {fileID: 21300000, guid: 1c946f1a1424b3543bf041ae208bcc0d, type: 3}
    attribute: m_Sprite
    path: 
    classID: 212
    script: {fileID: 0}
  m_SampleRate: 12
  m_WrapMode: 0
  m_Bounds:
    m_Center: {x: 0, y: 0, z: 0}
    m_Extent: {x: 0, y: 0, z: 0}
  m_ClipBindingConstant:
    genericBindings:
    - serializedVersion: 2
      path: 0
      attribute: 0
      script: {fileID: 0}
      typeID: 212
      customType: 23
      isPPtrCurve: 1
    pptrCurveMapping:
    - {fileID: 21300000, guid: 1df4d35414ee9b54582f17ae30746eb2, type: 3}
    - {fileID: 21300000, guid: 8553a8208882a29458ad7d06d18ab0de, type: 3}
    - {fileID: 21300000, guid: 83cf4c974a7bef24b94f3a9dc838b11a, type: 3}
    - {fileID: 21300000, guid: 152bac925404eb74691e8c7b0bb6e1ba, type: 3}
    - {fileID: 21300000, guid: 42f76e0b19b3dd447b9b9d7ae5f01331, type: 3}
    - {fileID: 21300000, guid: edb068beaf380ad4b97ba053507c9f55, type: 3}
    - {fileID: 21300000, guid: 7dd0c017969266f47a3fa5419b26b34a, type: 3}
    - {fileID: 21300000, guid: 076b2e0f1ced50a4ea31857e701416a9, type: 3}
    - {fileID: 21300000, guid: 99454bcafaa103e4894d485f0ba92b8f, type: 3}
    - {fileID: 21300000, guid: 1c946f1a1424b3543bf041ae208bcc0d, type: 3}
  m_AnimationClipSettings:
    serializedVersion: 2
    m_AdditiveReferencePoseClip: {fileID: 0}
    m_AdditiveReferencePoseTime: 0
    m_StartTime: 0
    m_StopTime: 0.8333333
    m_OrientationOffsetY: 0
    m_Level: 0
    m_CycleOffset: 0
    m_HasAdditiveReferencePose: 0
    m_LoopTime: 1
    m_LoopBlend: 0
    m_LoopBlendOrientation: 0
    m_LoopBlendPositionY: 0
    m_LoopBlendPositionXZ: 0
    m_KeepOriginalOrientation: 0
    m_KeepOriginalPositionY: 1
    m_KeepOriginalPositionXZ: 0
    m_HeightFromFeet: 0
    m_Mirror: 0
  m_EditorCurves: []
  m_EulerEditorCurves: []
  m_HasGenericRootTransform: 0
  m_HasMotionFloatCurves: 0
  m_Events: []
